{
    "prepare_queue": {
        "installed": [],
        "uninstalled": []
    },
    "config_munge": {
        "files": {}
    },
    "installed_plugins": {
        "cordova-plugin-splashscreen": {
            "PACKAGE_NAME": "tech.theograms.greeklish-translator"
        },
        "cordova-plugin-statusbar": {
            "PACKAGE_NAME": "tech.theograms.greeklish-translator"
        },
        "cordova-plugin-whitelist": {
            "PACKAGE_NAME": "tech.theograms.greeklish-translator"
        },
        "cordova-plugin-x-socialsharing": {
            "PACKAGE_NAME": "tech.theograms.greeklish-translator"
        }
    },
    "dependent_plugins": {}
}